%YAML 1.1
%TAG !u! tag:unity3d.com,2011:
--- !u!114 &11400000
MonoBehaviour:
  m_ObjectHideFlags: 0
  m_CorrespondingSourceObject: {fileID: 0}
  m_PrefabInstance: {fileID: 0}
  m_PrefabAsset: {fileID: 0}
  m_GameObject: {fileID: 0}
  m_Enabled: 1
  m_EditorHideFlags: 0
  m_Script: {fileID: 11500000, guid: 44727a2c587169e41acc7fbfc955b53a, type: 3}
  m_Name: SoundBank
  m_EditorClassIdentifier: 
  firstSound:
    relativeVolume: 1
    spatialBlend: 0
    bReverse: 0
    bIsMusic: 0
    bLoop: 0
    clips: []
